waves/tb_buffer.vcd
$version Generated by VerilatedVcd $end
$timescale 10ps $end
 $scope module tb_buffer $end
  $var real 64 C! CLK_PERIOD $end
  $var wire 1 B! clk $end
  $var wire 1 # n_rst $end
  $var wire 64 $ data_in [63:0] $end
  $var wire 256 & hash [255:0] $end
  $var wire 256 )! prev_hash [255:0] $end
  $var wire 1 . reset_hash $end
  $var wire 1 / sample_hash $end
  $var wire 1 0 data_valid $end
  $var wire 1 1 data_rcv $end
  $var wire 1 2 clear $end
  $var wire 512 1! data_out [511:0] $end
  $var wire 1024 3 test_data [1023:0] $end
  $var wire 256 S init_hash_values [255:0] $end
  $scope module check_buffer__Vstatic__unnamedblk1 $end
   $var wire 512 [ data [511:0] $end
  $upscope $end
  $scope module dut $end
   $var wire 1 B! clk $end
   $var wire 1 # n_rst $end
   $var wire 64 $ data_in [63:0] $end
   $var wire 256 & hash [255:0] $end
   $var wire 1 . reset_hash $end
   $var wire 1 / sample_hash $end
   $var wire 1 0 data_valid $end
   $var wire 1 1 data_rcv $end
   $var wire 1 2 clear $end
   $var wire 512 1! data_out [511:0] $end
   $var wire 256 )! prev_hash [255:0] $end
   $var wire 256 E! init_hash_values [255:0] $end
   $var wire 256 )! hash_buffer [255:0] $end
   $var wire 256 n next_hash_buffer [255:0] $end
   $var wire 3 A! ptr [0:2] $end
   $var wire 3 v next_ptr [0:2] $end
   $var wire 512 1! input_buffer [511:0] $end
   $var wire 512 w next_input_buffer [511:0] $end
  $upscope $end
  $scope module unnamedblk2 $end
   $var wire 32 k i [31:0] $end
  $upscope $end
  $scope module unnamedblk3 $end
   $var wire 32 l i [31:0] $end
  $upscope $end
  $scope module unnamedblk4 $end
   $var wire 32 m i [31:0] $end
  $upscope $end
 $upscope $end
$enddefinitions $end


#0
0#
b0000000000000000000000000000000000000000000000000000000000000000 $
b0000000000000000000000000000000000000000000000000000000000000000000000000000000000000000000000000000000000000000000000000000000000000000000000000000000000000000000000000000000000000000000000000000000000000000000000000000000000000000000000000000000000000000 &
0.
0/
00
01
02
b0000000000000000000000000000000000000000000000000000000000000000000000000000000000000000000000000000000000000000000000000000000000000000000000000000000000000000000000000000000000000000000000000000000000000000000000000000000000000000000000000000000000000000000000000000000000000000000000000000000000000000000000000000000000000000000000000000000000000000000000000000000000000000000000000000000000000000000000000000000000000000000000000000000000000000000000000000000000000000000000000000000000000000000000000000000000000000000000000000000000000000000000000000000000000000000000000000000000000000000000000000000000000000000000000000000000000000000000000000000000000000000000000000000000000000000000000000000000000000000000000000000000000000000000000000000000000000000000000000000000000000000000000000000000000000000000000000000000000000000000000000000000000000000000000000000000000000000000000000000000000000000000000000000000000000000000000000000000000000000000000000000000000000000000000000000000000000000000000000000000000000 3
b0000000000000000000000000000000000000000000000000000000000000000000000000000000000000000000000000000000000000000000000000000000000000000000000000000000000000000000000000000000000000000000000000000000000000000000000000000000000000000000000000000000000000000 S
b00000000000000000000000000000000000000000000000000000000000000000000000000000000000000000000000000000000000000000000000000000000000000000000000000000000000000000000000000000000000000000000000000000000000000000000000000000000000000000000000000000000000000000000000000000000000000000000000000000000000000000000000000000000000000000000000000000000000000000000000000000000000000000000000000000000000000000000000000000000000000000000000000000000000000000000000000000000000000000000000000000000000000000000000000000000 [
b00000000000000000000000000000000 k
b00000000000000000000000000000000 l
b00000000000000000000000000000000 m
b0000000000000000000000000000000000000000000000000000000000000000000000000000000000000000000000000000000000000000000000000000000000000000000000000000000000000000000000000000000000000000000000000000000000000000000000000000000000000000000000000000000000000000 n
b000 v
b00000000000000000000000000000000000000000000000000000000000000000000000000000000000000000000000000000000000000000000000000000000000000000000000000000000000000000000000000000000000000000000000000000000000000000000000000000000000000000000000000000000000000000000000000000000000000000000000000000000000000000000000000000000000000000000000000000000000000000000000000000000000000000000000000000000000000000000000000000000000000000000000000000000000000000000000000000000000000000000000000000000000000000000000000000000 w
b0000000000000000000000000000000000000000000000000000000000000000000000000000000000000000000000000000000000000000000000000000000000000000000000000000000000000000000000000000000000000000000000000000000000000000000000000000000000000000000000000000000000000000 )!
b00000000000000000000000000000000000000000000000000000000000000000000000000000000000000000000000000000000000000000000000000000000000000000000000000000000000000000000000000000000000000000000000000000000000000000000000000000000000000000000000000000000000000000000000000000000000000000000000000000000000000000000000000000000000000000000000000000000000000000000000000000000000000000000000000000000000000000000000000000000000000000000000000000000000000000000000000000000000000000000000000000000000000000000000000000000 1!
b000 A!
0B!
r10 C!
b0110101000001001111001100110011110111011011001111010111010000101001111000110111011110011011100101010010101001111111101010011101001010001000011100101001001111111100110110000010101101000100011000001111110000011110110011010101101011011111000001100110100011001 E!
#500
b0110101000001001111001100110011110111011011001111010111010000101001111000110111011110011011100101010010101001111111101010011101001010001000011100101001001111111100110110000010101101000100011000001111110000011110110011010101101011011111000001100110100011001 n
b0110101000001001111001100110011110111011011001111010111010000101001111000110111011110011011100101010010101001111111101010011101001010001000011100101001001111111100110110000010101101000100011000001111110000011110110011010101101011011111000001100110100011001 )!
1B!
#1000
0B!
#1500
1#
1B!
#2000
b1010101111001101111011110000000110101011110011011110111100000001000000000000000000000000000000000000000000000000000000000000000000010000000100000001000000010000000100000001000000010000000100000000101000011011001011000011110101001110010111110000101000011011000100010001000100010001000100010001000100010001000100010001000111110000000011010001000000000000111100000000110100010000000000000000000100100011010001010110011110001001101010111100110111101111101011011101101110101101000000001011101011011011101010111101101001110011010001101010101010010011011110111011101011010111000000001111111011011100101110101001100001110110010101000011001000010000111011101110111011101110111011101110111011101110111011101110111000001001010100000011011101001011000000111111110011001001001111101010101000010001100010001000100011101110000100010001000100011000100111110000010101100111100010000111110011001100000100000000000000000001001000110100010101100111100010011010101111001101111011111010110111011011101011010000000010111010110110111010101111011010 3
0B!
#2500
1B!
#3000
b1010101111001101111011110000000110101011110011011110111100000001 $
10
11
b001 v
b10101011110011011110111100000001101010111100110111101111000000010000000000000000000000000000000000000000000000000000000000000000000000000000000000000000000000000000000000000000000000000000000000000000000000000000000000000000000000000000000000000000000000000000000000000000000000000000000000000000000000000000000000000000000000000000000000000000000000000000000000000000000000000000000000000000000000000000000000000000000000000000000000000000000000000000000000000000000000000000000000000000000000000000000000000000 w
0B!
#3500
b010 v
b10101011110011011110111100000001101010111100110111101111000000011010101111001101111011110000000110101011110011011110111100000001000000000000000000000000000000000000000000000000000000000000000000000000000000000000000000000000000000000000000000000000000000000000000000000000000000000000000000000000000000000000000000000000000000000000000000000000000000000000000000000000000000000000000000000000000000000000000000000000000000000000000000000000000000000000000000000000000000000000000000000000000000000000000000000000 w
b10101011110011011110111100000001101010111100110111101111000000010000000000000000000000000000000000000000000000000000000000000000000000000000000000000000000000000000000000000000000000000000000000000000000000000000000000000000000000000000000000000000000000000000000000000000000000000000000000000000000000000000000000000000000000000000000000000000000000000000000000000000000000000000000000000000000000000000000000000000000000000000000000000000000000000000000000000000000000000000000000000000000000000000000000000000 1!
b001 A!
1B!
#4000
b0000000000000000000000000000000000000000000000000000000000000000 $
b00000000000000000000000000000001 k
b10101011110011011110111100000001101010111100110111101111000000010000000000000000000000000000000000000000000000000000000000000000000000000000000000000000000000000000000000000000000000000000000000000000000000000000000000000000000000000000000000000000000000000000000000000000000000000000000000000000000000000000000000000000000000000000000000000000000000000000000000000000000000000000000000000000000000000000000000000000000000000000000000000000000000000000000000000000000000000000000000000000000000000000000000000000 w
0B!
#4500
b011 v
b010 A!
1B!
#5000
b0001000000010000000100000001000000010000000100000001000000010000 $
b00000000000000000000000000000010 k
b10101011110011011110111100000001101010111100110111101111000000010000000000000000000000000000000000000000000000000000000000000000000100000001000000010000000100000001000000010000000100000001000000000000000000000000000000000000000000000000000000000000000000000000000000000000000000000000000000000000000000000000000000000000000000000000000000000000000000000000000000000000000000000000000000000000000000000000000000000000000000000000000000000000000000000000000000000000000000000000000000000000000000000000000000000000 w
0B!
#5500
b100 v
b10101011110011011110111100000001101010111100110111101111000000010000000000000000000000000000000000000000000000000000000000000000000100000001000000010000000100000001000000010000000100000001000000010000000100000001000000010000000100000001000000010000000100000000000000000000000000000000000000000000000000000000000000000000000000000000000000000000000000000000000000000000000000000000000000000000000000000000000000000000000000000000000000000000000000000000000000000000000000000000000000000000000000000000000000000000 w
b10101011110011011110111100000001101010111100110111101111000000010000000000000000000000000000000000000000000000000000000000000000000100000001000000010000000100000001000000010000000100000001000000000000000000000000000000000000000000000000000000000000000000000000000000000000000000000000000000000000000000000000000000000000000000000000000000000000000000000000000000000000000000000000000000000000000000000000000000000000000000000000000000000000000000000000000000000000000000000000000000000000000000000000000000000000 1!
b011 A!
1B!
#6000
b0000101000011011001011000011110101001110010111110000101000011011 $
b00000000000000000000000000000011 k
b10101011110011011110111100000001101010111100110111101111000000010000000000000000000000000000000000000000000000000000000000000000000100000001000000010000000100000001000000010000000100000001000000001010000110110010110000111101010011100101111100001010000110110000000000000000000000000000000000000000000000000000000000000000000000000000000000000000000000000000000000000000000000000000000000000000000000000000000000000000000000000000000000000000000000000000000000000000000000000000000000000000000000000000000000000000 w
0B!
#6500
b101 v
b10101011110011011110111100000001101010111100110111101111000000010000000000000000000000000000000000000000000000000000000000000000000100000001000000010000000100000001000000010000000100000001000000001010000110110010110000111101010011100101111100001010000110110000101000011011001011000011110101001110010111110000101000011011000000000000000000000000000000000000000000000000000000000000000000000000000000000000000000000000000000000000000000000000000000000000000000000000000000000000000000000000000000000000000000000000 w
b10101011110011011110111100000001101010111100110111101111000000010000000000000000000000000000000000000000000000000000000000000000000100000001000000010000000100000001000000010000000100000001000000001010000110110010110000111101010011100101111100001010000110110000000000000000000000000000000000000000000000000000000000000000000000000000000000000000000000000000000000000000000000000000000000000000000000000000000000000000000000000000000000000000000000000000000000000000000000000000000000000000000000000000000000000000 1!
b100 A!
1B!
#7000
b0001000100010001000100010001000100010001000100010001000100010001 $
b00000000000000000000000000000100 k
b10101011110011011110111100000001101010111100110111101111000000010000000000000000000000000000000000000000000000000000000000000000000100000001000000010000000100000001000000010000000100000001000000001010000110110010110000111101010011100101111100001010000110110001000100010001000100010001000100010001000100010001000100010001000000000000000000000000000000000000000000000000000000000000000000000000000000000000000000000000000000000000000000000000000000000000000000000000000000000000000000000000000000000000000000000000 w
0B!
#7500
b110 v
b10101011110011011110111100000001101010111100110111101111000000010000000000000000000000000000000000000000000000000000000000000000000100000001000000010000000100000001000000010000000100000001000000001010000110110010110000111101010011100101111100001010000110110001000100010001000100010001000100010001000100010001000100010001000100010001000100010001000100010001000100010001000100010001000100000000000000000000000000000000000000000000000000000000000000000000000000000000000000000000000000000000000000000000000000000000 w
b10101011110011011110111100000001101010111100110111101111000000010000000000000000000000000000000000000000000000000000000000000000000100000001000000010000000100000001000000010000000100000001000000001010000110110010110000111101010011100101111100001010000110110001000100010001000100010001000100010001000100010001000100010001000000000000000000000000000000000000000000000000000000000000000000000000000000000000000000000000000000000000000000000000000000000000000000000000000000000000000000000000000000000000000000000000 1!
b101 A!
1B!
#8000
b1111000000001101000100000000000011110000000011010001000000000000 $
b00000000000000000000000000000101 k
b10101011110011011110111100000001101010111100110111101111000000010000000000000000000000000000000000000000000000000000000000000000000100000001000000010000000100000001000000010000000100000001000000001010000110110010110000111101010011100101111100001010000110110001000100010001000100010001000100010001000100010001000100010001111100000000110100010000000000001111000000001101000100000000000000000000000000000000000000000000000000000000000000000000000000000000000000000000000000000000000000000000000000000000000000000000 w
0B!
#8500
b111 v
b10101011110011011110111100000001101010111100110111101111000000010000000000000000000000000000000000000000000000000000000000000000000100000001000000010000000100000001000000010000000100000001000000001010000110110010110000111101010011100101111100001010000110110001000100010001000100010001000100010001000100010001000100010001111100000000110100010000000000001111000000001101000100000000000011110000000011010001000000000000111100000000110100010000000000000000000000000000000000000000000000000000000000000000000000000000 w
b10101011110011011110111100000001101010111100110111101111000000010000000000000000000000000000000000000000000000000000000000000000000100000001000000010000000100000001000000010000000100000001000000001010000110110010110000111101010011100101111100001010000110110001000100010001000100010001000100010001000100010001000100010001111100000000110100010000000000001111000000001101000100000000000000000000000000000000000000000000000000000000000000000000000000000000000000000000000000000000000000000000000000000000000000000000 1!
b110 A!
1B!
#9000
b0000000100100011010001010110011110001001101010111100110111101111 $
b00000000000000000000000000000110 k
b10101011110011011110111100000001101010111100110111101111000000010000000000000000000000000000000000000000000000000000000000000000000100000001000000010000000100000001000000010000000100000001000000001010000110110010110000111101010011100101111100001010000110110001000100010001000100010001000100010001000100010001000100010001111100000000110100010000000000001111000000001101000100000000000000000001001000110100010101100111100010011010101111001101111011110000000000000000000000000000000000000000000000000000000000000000 w
0B!
#9500
b000 v
b10101011110011011110111100000001101010111100110111101111000000010000000000000000000000000000000000000000000000000000000000000000000100000001000000010000000100000001000000010000000100000001000000001010000110110010110000111101010011100101111100001010000110110001000100010001000100010001000100010001000100010001000100010001111100000000110100010000000000001111000000001101000100000000000000000001001000110100010101100111100010011010101111001101111011110000000100100011010001010110011110001001101010111100110111101111 w
b10101011110011011110111100000001101010111100110111101111000000010000000000000000000000000000000000000000000000000000000000000000000100000001000000010000000100000001000000010000000100000001000000001010000110110010110000111101010011100101111100001010000110110001000100010001000100010001000100010001000100010001000100010001111100000000110100010000000000001111000000001101000100000000000000000001001000110100010101100111100010011010101111001101111011110000000000000000000000000000000000000000000000000000000000000000 1!
b111 A!
1B!
#10000
b1010110111011011101011010000000010111010110110111010101111011010 $
b00000000000000000000000000000111 k
b10101011110011011110111100000001101010111100110111101111000000010000000000000000000000000000000000000000000000000000000000000000000100000001000000010000000100000001000000010000000100000001000000001010000110110010110000111101010011100101111100001010000110110001000100010001000100010001000100010001000100010001000100010001111100000000110100010000000000001111000000001101000100000000000000000001001000110100010101100111100010011010101111001101111011111010110111011011101011010000000010111010110110111010101111011010 w
0B!
#10500
b001 v
b10101101110110111010110100000000101110101101101110101011110110100000000000000000000000000000000000000000000000000000000000000000000100000001000000010000000100000001000000010000000100000001000000001010000110110010110000111101010011100101111100001010000110110001000100010001000100010001000100010001000100010001000100010001111100000000110100010000000000001111000000001101000100000000000000000001001000110100010101100111100010011010101111001101111011111010110111011011101011010000000010111010110110111010101111011010 w
b10101011110011011110111100000001101010111100110111101111000000010000000000000000000000000000000000000000000000000000000000000000000100000001000000010000000100000001000000010000000100000001000000001010000110110010110000111101010011100101111100001010000110110001000100010001000100010001000100010001000100010001000100010001111100000000110100010000000000001111000000001101000100000000000000000001001000110100010101100111100010011010101111001101111011111010110111011011101011010000000010111010110110111010101111011010 1!
b000 A!
1B!
#11000
00
01
b00000000000000000000000000001000 k
b000 v
b10101011110011011110111100000001101010111100110111101111000000010000000000000000000000000000000000000000000000000000000000000000000100000001000000010000000100000001000000010000000100000001000000001010000110110010110000111101010011100101111100001010000110110001000100010001000100010001000100010001000100010001000100010001111100000000110100010000000000001111000000001101000100000000000000000001001000110100010101100111100010011010101111001101111011111010110111011011101011010000000010111010110110111010101111011010 w
0B!
#11500
1B!
#12000
b10101011110011011110111100000001101010111100110111101111000000010000000000000000000000000000000000000000000000000000000000000000000100000001000000010000000100000001000000010000000100000001000000001010000110110010110000111101010011100101111100001010000110110001000100010001000100010001000100010001000100010001000100010001111100000000110100010000000000001111000000001101000100000000000000000001001000110100010101100111100010011010101111001101111011111010110111011011101011010000000010111010110110111010101111011010 [
0B!
#12500
1B!
#13000
0B!
#13500
1B!
#14000
0B!
#14500
1B!
#15000
0B!
#15500
1B!
#16000
0B!
#16500
1B!
#17000
b0111001101000110101010101001001101111011101110101101011100000000 $
10
11
b00000000000000000000000000001000 l
b001 v
b01110011010001101010101010010011011110111011101011010111000000000000000000000000000000000000000000000000000000000000000000000000000100000001000000010000000100000001000000010000000100000001000000001010000110110010110000111101010011100101111100001010000110110001000100010001000100010001000100010001000100010001000100010001111100000000110100010000000000001111000000001101000100000000000000000001001000110100010101100111100010011010101111001101111011111010110111011011101011010000000010111010110110111010101111011010 w
0B!
#17500
b010 v
b01110011010001101010101010010011011110111011101011010111000000000111001101000110101010101001001101111011101110101101011100000000000100000001000000010000000100000001000000010000000100000001000000001010000110110010110000111101010011100101111100001010000110110001000100010001000100010001000100010001000100010001000100010001111100000000110100010000000000001111000000001101000100000000000000000001001000110100010101100111100010011010101111001101111011111010110111011011101011010000000010111010110110111010101111011010 w
b01110011010001101010101010010011011110111011101011010111000000000000000000000000000000000000000000000000000000000000000000000000000100000001000000010000000100000001000000010000000100000001000000001010000110110010110000111101010011100101111100001010000110110001000100010001000100010001000100010001000100010001000100010001111100000000110100010000000000001111000000001101000100000000000000000001001000110100010101100111100010011010101111001101111011111010110111011011101011010000000010111010110110111010101111011010 1!
b001 A!
1B!
#18000
b1111111011011100101110101001100001110110010101000011001000010000 $
b00000000000000000000000000001001 l
b01110011010001101010101010010011011110111011101011010111000000001111111011011100101110101001100001110110010101000011001000010000000100000001000000010000000100000001000000010000000100000001000000001010000110110010110000111101010011100101111100001010000110110001000100010001000100010001000100010001000100010001000100010001111100000000110100010000000000001111000000001101000100000000000000000001001000110100010101100111100010011010101111001101111011111010110111011011101011010000000010111010110110111010101111011010 w
0B!
#18500
b011 v
b01110011010001101010101010010011011110111011101011010111000000001111111011011100101110101001100001110110010101000011001000010000111111101101110010111010100110000111011001010100001100100001000000001010000110110010110000111101010011100101111100001010000110110001000100010001000100010001000100010001000100010001000100010001111100000000110100010000000000001111000000001101000100000000000000000001001000110100010101100111100010011010101111001101111011111010110111011011101011010000000010111010110110111010101111011010 w
b01110011010001101010101010010011011110111011101011010111000000001111111011011100101110101001100001110110010101000011001000010000000100000001000000010000000100000001000000010000000100000001000000001010000110110010110000111101010011100101111100001010000110110001000100010001000100010001000100010001000100010001000100010001111100000000110100010000000000001111000000001101000100000000000000000001001000110100010101100111100010011010101111001101111011111010110111011011101011010000000010111010110110111010101111011010 1!
b010 A!
1B!
#19000
00
01
b00000000000000000000000000001010 l
b010 v
b01110011010001101010101010010011011110111011101011010111000000001111111011011100101110101001100001110110010101000011001000010000000100000001000000010000000100000001000000010000000100000001000000001010000110110010110000111101010011100101111100001010000110110001000100010001000100010001000100010001000100010001000100010001111100000000110100010000000000001111000000001101000100000000000000000001001000110100010101100111100010011010101111001101111011111010110111011011101011010000000010111010110110111010101111011010 w
0B!
#19500
1B!
#20000
0B!
#20500
1B!
#21000
0B!
#21500
1B!
#22000
0B!
#22500
1B!
#23000
b1110111011101110111011101110111011101110111011101110111011101110 $
10
11
b00000000000000000000000000001010 m
b011 v
b01110011010001101010101010010011011110111011101011010111000000001111111011011100101110101001100001110110010101000011001000010000111011101110111011101110111011101110111011101110111011101110111000001010000110110010110000111101010011100101111100001010000110110001000100010001000100010001000100010001000100010001000100010001111100000000110100010000000000001111000000001101000100000000000000000001001000110100010101100111100010011010101111001101111011111010110111011011101011010000000010111010110110111010101111011010 w
0B!
#23500
b100 v
b01110011010001101010101010010011011110111011101011010111000000001111111011011100101110101001100001110110010101000011001000010000111011101110111011101110111011101110111011101110111011101110111011101110111011101110111011101110111011101110111011101110111011100001000100010001000100010001000100010001000100010001000100010001111100000000110100010000000000001111000000001101000100000000000000000001001000110100010101100111100010011010101111001101111011111010110111011011101011010000000010111010110110111010101111011010 w
b01110011010001101010101010010011011110111011101011010111000000001111111011011100101110101001100001110110010101000011001000010000111011101110111011101110111011101110111011101110111011101110111000001010000110110010110000111101010011100101111100001010000110110001000100010001000100010001000100010001000100010001000100010001111100000000110100010000000000001111000000001101000100000000000000000001001000110100010101100111100010011010101111001101111011111010110111011011101011010000000010111010110110111010101111011010 1!
b011 A!
1B!
#24000
b0000100101010000001101110100101100000011111111001100100100111110 $
b00000000000000000000000000001011 m
b01110011010001101010101010010011011110111011101011010111000000001111111011011100101110101001100001110110010101000011001000010000111011101110111011101110111011101110111011101110111011101110111000001001010100000011011101001011000000111111110011001001001111100001000100010001000100010001000100010001000100010001000100010001111100000000110100010000000000001111000000001101000100000000000000000001001000110100010101100111100010011010101111001101111011111010110111011011101011010000000010111010110110111010101111011010 w
0B!
#24500
b101 v
b01110011010001101010101010010011011110111011101011010111000000001111111011011100101110101001100001110110010101000011001000010000111011101110111011101110111011101110111011101110111011101110111000001001010100000011011101001011000000111111110011001001001111100000100101010000001101110100101100000011111111001100100100111110111100000000110100010000000000001111000000001101000100000000000000000001001000110100010101100111100010011010101111001101111011111010110111011011101011010000000010111010110110111010101111011010 w
b01110011010001101010101010010011011110111011101011010111000000001111111011011100101110101001100001110110010101000011001000010000111011101110111011101110111011101110111011101110111011101110111000001001010100000011011101001011000000111111110011001001001111100001000100010001000100010001000100010001000100010001000100010001111100000000110100010000000000001111000000001101000100000000000000000001001000110100010101100111100010011010101111001101111011111010110111011011101011010000000010111010110110111010101111011010 1!
b100 A!
1B!
#25000
b1010101000010001100010001000100011101110000100010001000100011000 $
b00000000000000000000000000001100 m
b01110011010001101010101010010011011110111011101011010111000000001111111011011100101110101001100001110110010101000011001000010000111011101110111011101110111011101110111011101110111011101110111000001001010100000011011101001011000000111111110011001001001111101010101000010001100010001000100011101110000100010001000100011000111100000000110100010000000000001111000000001101000100000000000000000001001000110100010101100111100010011010101111001101111011111010110111011011101011010000000010111010110110111010101111011010 w
0B!
#25500
b110 v
b01110011010001101010101010010011011110111011101011010111000000001111111011011100101110101001100001110110010101000011001000010000111011101110111011101110111011101110111011101110111011101110111000001001010100000011011101001011000000111111110011001001001111101010101000010001100010001000100011101110000100010001000100011000101010100001000110001000100010001110111000010001000100010001100000000001001000110100010101100111100010011010101111001101111011111010110111011011101011010000000010111010110110111010101111011010 w
b01110011010001101010101010010011011110111011101011010111000000001111111011011100101110101001100001110110010101000011001000010000111011101110111011101110111011101110111011101110111011101110111000001001010100000011011101001011000000111111110011001001001111101010101000010001100010001000100011101110000100010001000100011000111100000000110100010000000000001111000000001101000100000000000000000001001000110100010101100111100010011010101111001101111011111010110111011011101011010000000010111010110110111010101111011010 1!
b101 A!
1B!
#26000
b1001111100000101011001111000100001111100110011000001000000000000 $
b00000000000000000000000000001101 m
b01110011010001101010101010010011011110111011101011010111000000001111111011011100101110101001100001110110010101000011001000010000111011101110111011101110111011101110111011101110111011101110111000001001010100000011011101001011000000111111110011001001001111101010101000010001100010001000100011101110000100010001000100011000100111110000010101100111100010000111110011001100000100000000000000000001001000110100010101100111100010011010101111001101111011111010110111011011101011010000000010111010110110111010101111011010 w
0B!
#26500
b111 v
b01110011010001101010101010010011011110111011101011010111000000001111111011011100101110101001100001110110010101000011001000010000111011101110111011101110111011101110111011101110111011101110111000001001010100000011011101001011000000111111110011001001001111101010101000010001100010001000100011101110000100010001000100011000100111110000010101100111100010000111110011001100000100000000000010011111000001010110011110001000011111001100110000010000000000001010110111011011101011010000000010111010110110111010101111011010 w
b01110011010001101010101010010011011110111011101011010111000000001111111011011100101110101001100001110110010101000011001000010000111011101110111011101110111011101110111011101110111011101110111000001001010100000011011101001011000000111111110011001001001111101010101000010001100010001000100011101110000100010001000100011000100111110000010101100111100010000111110011001100000100000000000000000001001000110100010101100111100010011010101111001101111011111010110111011011101011010000000010111010110110111010101111011010 1!
b110 A!
1B!
#27000
b0000000100100011010001010110011110001001101010111100110111101111 $
b00000000000000000000000000001110 m
b01110011010001101010101010010011011110111011101011010111000000001111111011011100101110101001100001110110010101000011001000010000111011101110111011101110111011101110111011101110111011101110111000001001010100000011011101001011000000111111110011001001001111101010101000010001100010001000100011101110000100010001000100011000100111110000010101100111100010000111110011001100000100000000000000000001001000110100010101100111100010011010101111001101111011111010110111011011101011010000000010111010110110111010101111011010 w
0B!
#27500
b000 v
b01110011010001101010101010010011011110111011101011010111000000001111111011011100101110101001100001110110010101000011001000010000111011101110111011101110111011101110111011101110111011101110111000001001010100000011011101001011000000111111110011001001001111101010101000010001100010001000100011101110000100010001000100011000100111110000010101100111100010000111110011001100000100000000000000000001001000110100010101100111100010011010101111001101111011110000000100100011010001010110011110001001101010111100110111101111 w
b111 A!
1B!
#28000
b1010110111011011101011010000000010111010110110111010101111011010 $
b00000000000000000000000000001111 m
b01110011010001101010101010010011011110111011101011010111000000001111111011011100101110101001100001110110010101000011001000010000111011101110111011101110111011101110111011101110111011101110111000001001010100000011011101001011000000111111110011001001001111101010101000010001100010001000100011101110000100010001000100011000100111110000010101100111100010000111110011001100000100000000000000000001001000110100010101100111100010011010101111001101111011111010110111011011101011010000000010111010110110111010101111011010 w
0B!
#28500
b001 v
b10101101110110111010110100000000101110101101101110101011110110101111111011011100101110101001100001110110010101000011001000010000111011101110111011101110111011101110111011101110111011101110111000001001010100000011011101001011000000111111110011001001001111101010101000010001100010001000100011101110000100010001000100011000100111110000010101100111100010000111110011001100000100000000000000000001001000110100010101100111100010011010101111001101111011111010110111011011101011010000000010111010110110111010101111011010 w
b000 A!
1B!
#29000
00
01
b00000000000000000000000000010000 m
b000 v
b01110011010001101010101010010011011110111011101011010111000000001111111011011100101110101001100001110110010101000011001000010000111011101110111011101110111011101110111011101110111011101110111000001001010100000011011101001011000000111111110011001001001111101010101000010001100010001000100011101110000100010001000100011000100111110000010101100111100010000111110011001100000100000000000000000001001000110100010101100111100010011010101111001101111011111010110111011011101011010000000010111010110110111010101111011010 w
0B!
#29500
1B!
#30000
b01110011010001101010101010010011011110111011101011010111000000001111111011011100101110101001100001110110010101000011001000010000111011101110111011101110111011101110111011101110111011101110111000001001010100000011011101001011000000111111110011001001001111101010101000010001100010001000100011101110000100010001000100011000100111110000010101100111100010000111110011001100000100000000000000000001001000110100010101100111100010011010101111001101111011111010110111011011101011010000000010111010110110111010101111011010 [
0B!
#30500
1B!
#31000
b1010101010101010101010101010101010111011101110111011101110111011110011001100110011001100110011001101110111011101110111011101110111101110111011101110111011101110111111111111111111111111111111110000000000000000000000000000000000010001000100010001000100010001 &
1/
b1010101010101010101010101010101010111011101110111011101110111011110011001100110011001100110011001101110111011101110111011101110111101110111011101110111011101110111111111111111111111111111111110000000000000000000000000000000000010001000100010001000100010001 n
0B!
#31500
b1010101010101010101010101010101010111011101110111011101110111011110011001100110011001100110011001101110111011101110111011101110111101110111011101110111011101110111111111111111111111111111111110000000000000000000000000000000000010001000100010001000100010001 )!
1B!
#32000
0/
0B!
#32500
1B!
#33000
1.
b0110101000001001111001100110011110111011011001111010111010000101001111000110111011110011011100101010010101001111111101010011101001010001000011100101001001111111100110110000010101101000100011000001111110000011110110011010101101011011111000001100110100011001 S
b0110101000001001111001100110011110111011011001111010111010000101001111000110111011110011011100101010010101001111111101010011101001010001000011100101001001111111100110110000010101101000100011000001111110000011110110011010101101011011111000001100110100011001 n
0B!
#33500
b0110101000001001111001100110011110111011011001111010111010000101001111000110111011110011011100101010010101001111111101010011101001010001000011100101001001111111100110110000010101101000100011000001111110000011110110011010101101011011111000001100110100011001 )!
1B!
#34000
0.
0B!
