waves/tb_hash_engine.vcd
$version Generated by VerilatedVcd $end
$timescale 10ps $end
 $scope module tb_hash_engine $end
  $var real 64 u" CLK_PERIOD $end
  $var wire 1 m" clk $end
  $var wire 1 n" n_rst $end
  $var wire 1 o" load $end
  $var wire 1 p" clear_hash $end
  $var wire 512 W! message_block [511:0] $end
  $var wire 256 P" hash_out [255:0] $end
  $var wire 256 g! expected_hash [255:0] $end
  $var wire 256 (" prev_hash [255:0] $end
  $var wire 256 # init_hash_values [255:0] $end
  $var wire 2048 + round_constants [2047:0] $end
  $var wire 2048 k compute_hash__Vstatic__w [2047:0] $end
  $var wire 256 o! compute_hash__Vstatic__h [255:0] $end
  $var wire 256 M! compute_hash__Vstatic__h_in_copy [255:0] $end
  $var wire 32 U! compute_hash__Vstatic__s0 [31:0] $end
  $var wire 32 V! compute_hash__Vstatic__s1 [31:0] $end
  $var wire 32 w! compute_hash__Vstatic__ss0 [31:0] $end
  $var wire 32 x! compute_hash__Vstatic__ss1 [31:0] $end
  $var wire 32 y! compute_hash__Vstatic__ch [31:0] $end
  $var wire 32 z! compute_hash__Vstatic__maj [31:0] $end
  $var wire 32 {! compute_hash__Vstatic__temp1 [31:0] $end
  $var wire 32 |! compute_hash__Vstatic__temp2 [31:0] $end
  $var wire 32 }! compute_hash__Vstatic__i [31:0] $end
  $scope module dut $end
   $var wire 1 m" clk $end
   $var wire 1 n" n_rst $end
   $var wire 1 o" load $end
   $var wire 1 p" clear_hash $end
   $var wire 512 W! message_block [511:0] $end
   $var wire 256 (" prev_hash [255:0] $end
   $var wire 256 P" hash_out [255:0] $end
   $var wire 512 W! init_message_words [511:0] $end
   $var wire 1 X" count_enable $end
   $var wire 1 Y" rollover_flag $end
   $var wire 7 Z" message_count [6:0] $end
   $var wire 32 [" message_word [31:0] $end
   $scope module compress_core $end
    $var wire 1 m" clk $end
    $var wire 1 n" n_rst $end
    $var wire 1 p" clear_hash $end
    $var wire 1 o" load $end
    $var wire 32 [" message_word [31:0] $end
    $var wire 7 Z" count [6:0] $end
    $var wire 256 (" prev_hash [255:0] $end
    $var wire 256 P" hash_out [255:0] $end
    $var wire 256 w" init_hash_values [255:0] $end
    $var wire 256 P" hash_reg [255:0] $end
    $var wire 256 0" next_hash_reg [255:0] $end
    $var wire 2048 !# round_constants [2047:0] $end
    $var wire 32 8" s0 [31:0] $end
    $var wire 32 9" s1 [31:0] $end
    $var wire 32 :" ch [31:0] $end
    $var wire 32 ;" maj [31:0] $end
    $var wire 32 <" temp1 [31:0] $end
    $var wire 32 =" temp2 [31:0] $end
   $upscope $end
   $scope module message_counter $end
    $var wire 32 a# SIZE [31:0] $end
    $var wire 32 b# RESET_ROLLOVER [31:0] $end
    $var wire 1 m" clk $end
    $var wire 1 n" n_rst $end
    $var wire 1 o" clear $end
    $var wire 1 X" count_enable $end
    $var wire 7 c# rollover_val [6:0] $end
    $var wire 7 Z" count_out [6:0] $end
    $var wire 1 Y" rollover_flag $end
    $var wire 7 q" next_count [6:0] $end
    $var wire 7 c# reset_value [6:0] $end
    $var wire 1 r" next_rollover_flag $end
    $var wire 1 d# reset_rollover_flag $end
   $upscope $end
   $scope module message_sched $end
    $var wire 1 m" clk $end
    $var wire 1 n" n_rst $end
    $var wire 1 o" load $end
    $var wire 512 W! data_in [511:0] $end
    $var wire 32 [" data_out [31:0] $end
    $var wire 512 \" buffer [511:0] $end
    $var wire 512 >" next_buffer [511:0] $end
    $var wire 4 l" ptr [3:0] $end
    $var wire 4 s" next_ptr [3:0] $end
    $var wire 32 N" s0 [31:0] $end
    $var wire 32 O" s1 [31:0] $end
    $var wire 32 t" next_data_out [31:0] $end
   $upscope $end
  $upscope $end
  $scope module unnamedblk1 $end
   $var wire 256 ~! golden_h_state [255:0] $end
  $upscope $end
 $upscope $end
$enddefinitions $end


#0
b0110101000001001111001100110011110111011011001111010111010000101001111000110111011110011011100101010010101001111111101010011101001010001000011100101001001111111100110110000010101101000100011000001111110000011110110011010101101011011111000001100110100011001 #
b01000010100010100010111110011000011100010011011101000100100100011011010111000000111110111100111111101001101101011101101110100101001110010101011011000010010110110101100111110001000100011111000110010010001111111000001010100100101010110001110001011110110101011101100000000111101010101001100000010010100000110101101100000001001001000011000110000101101111100101010100001100011111011100001101110010101111100101110101110100100000001101111010110001111111101001101111011100000001101010011111000001100110111111000101110100111001001001101101101001110000011110111110111110010001111000011000001111110000011001110111000110001001000000110010100001110011000010110111101001001011000110111101001010011101001000010010101010010111001011000010101001110111000111011011111001100010001101101010011000001111100101000101010010101010000011000111000110011011011011000000000011001001111100100010111111010110010111111111000111110001101110000000001011111100111101010110100111100100010100011100000110110010100110001101010001000101000010100100101001011001110010011110110111000010101000010100101110000110110010000100111000010011010010110001101101111111000101001100111000000011010001001101100101000010100111001101010100011101100110101000001010101110111000000111000010110010010010111010010010011100100010110010000101101000101011111111101000101000011010100000011010011001100100101111000010010010111000101101110000110001110110110001010001101000111101000110010010111010000001100111010110100110010000011000100100111101000000111000110101100001010001000001101010101000000111000000011001101001001100000100010110000111100011011101101100000010000010011101001000011101110100110000110100101100001011110010110101001110010001110000001100101100110100111011011000101010100100101001011011100111001100101001001111011010000010111001101111111100110111010010001111100000101110111001111000101001010110001101101111100001001100100001111000000101001000110011000111000000100000100010010000101111101111111111111010101001000101000001101100111010111011111011111001101000111111011111000110011100010111100011110010 +
b00000000000000000000000000000000000000000000000000000000000000000000000000000000000000000000000000000000000000000000000000000000000000000000000000000000000000000000000000000000000000000000000000000000000000000000000000000000000000000000000000000000000000000000000000000000000000000000000000000000000000000000000000000000000000000000000000000000000000000000000000000000000000000000000000000000000000000000000000000000000000000000000000000000000000000000000000000000000000000000000000000000000000000000000000000000000000000000000000000000000000000000000000000000000000000000000000000000000000000000000000000000000000000000000000000000000000000000000000000000000000000000000000000000000000000000000000000000000000000000000000000000000000000000000000000000000000000000000000000000000000000000000000000000000000000000000000000000000000000000000000000000000000000000000000000000000000000000000000000000000000000000000000000000000000000000000000000000000000000000000000000000000000000000000000000000000000000000000000000000000000000000000000000000000000000000000000000000000000000000000000000000000000000000000000000000000000000000000000000000000000000000000000000000000000000000000000000000000000000000000000000000000000000000000000000000000000000000000000000000000000000000000000000000000000000000000000000000000000000000000000000000000000000000000000000000000000000000000000000000000000000000000000000000000000000000000000000000000000000000000000000000000000000000000000000000000000000000000000000000000000000000000000000000000000000000000000000000000000000000000000000000000000000000000000000000000000000000000000000000000000000000000000000000000000000000000000000000000000000000000000000000000000000000000000000000000000000000000000000000000000000000000000000000000000000000000000000000000000000000000000000000000000000000000000000000000000000000000000000000000000000000000000000000000000000000000000000000000000000000000000000000000000000000000000000000000000000000000000000000000000000000000000000000000000000000000000000000000000000000000000000000 k
b0000000000000000000000000000000000000000000000000000000000000000000000000000000000000000000000000000000000000000000000000000000000000000000000000000000000000000000000000000000000000000000000000000000000000000000000000000000000000000000000000000000000000000 M!
b00000000000000000000000000000000 U!
b00000000000000000000000000000000 V!
b00000000000000000000000000000000000000000000000000000000000000000000000000000000000000000000000000000000000000000000000000000000000000000000000000000000000000000000000000000000000000000000000000000000000000000000000000000000000000000000000000000000000000000000000000000000000000000000000000000000000000000000000000000000000000000000000000000000000000000000000000000000000000000000000000000000000000000000000000000000000000000000000000000000000000000000000000000000000000000000000000000000000000000000000000000000 W!
b0000000000000000000000000000000000000000000000000000000000000000000000000000000000000000000000000000000000000000000000000000000000000000000000000000000000000000000000000000000000000000000000000000000000000000000000000000000000000000000000000000000000000000 g!
b0000000000000000000000000000000000000000000000000000000000000000000000000000000000000000000000000000000000000000000000000000000000000000000000000000000000000000000000000000000000000000000000000000000000000000000000000000000000000000000000000000000000000000 o!
b00000000000000000000000000000000 w!
b00000000000000000000000000000000 x!
b00000000000000000000000000000000 y!
b00000000000000000000000000000000 z!
b00000000000000000000000000000000 {!
b00000000000000000000000000000000 |!
b00000000000000000000000000000000 }!
b0000000000000000000000000000000000000000000000000000000000000000000000000000000000000000000000000000000000000000000000000000000000000000000000000000000000000000000000000000000000000000000000000000000000000000000000000000000000000000000000000000000000000000 ~!
b0110101000001001111001100110011110111011011001111010111010000101001111000110111011110011011100101010010101001111111101010011101001010001000011100101001001111111100110110000010101101000100011000001111110000011110110011010101101011011111000001100110100011001 ("
b0100001010001010001011111001100000000000000000000000000000000000000000000000000000000000000000000000000000000000000000000000000001000010100010100010111110011000000000000000000000000000000000000000000000000000000000000000000000000000000000000000000000000000 0"
b00000000000000000000000000000000 8"
b00000000000000000000000000000000 9"
b00000000000000000000000000000000 :"
b00000000000000000000000000000000 ;"
b01000010100010100010111110011000 <"
b00000000000000000000000000000000 ="
b00000000000000000000000000000000000000000000000000000000000000000000000000000000000000000000000000000000000000000000000000000000000000000000000000000000000000000000000000000000000000000000000000000000000000000000000000000000000000000000000000000000000000000000000000000000000000000000000000000000000000000000000000000000000000000000000000000000000000000000000000000000000000000000000000000000000000000000000000000000000000000000000000000000000000000000000000000000000000000000000000000000000000000000000000000000 >"
b00000000000000000000000000000000 N"
b00000000000000000000000000000000 O"
b0000000000000000000000000000000000000000000000000000000000000000000000000000000000000000000000000000000000000000000000000000000000000000000000000000000000000000000000000000000000000000000000000000000000000000000000000000000000000000000000000000000000000000 P"
1X"
0Y"
b0000000 Z"
b00000000000000000000000000000000 ["
b00000000000000000000000000000000000000000000000000000000000000000000000000000000000000000000000000000000000000000000000000000000000000000000000000000000000000000000000000000000000000000000000000000000000000000000000000000000000000000000000000000000000000000000000000000000000000000000000000000000000000000000000000000000000000000000000000000000000000000000000000000000000000000000000000000000000000000000000000000000000000000000000000000000000000000000000000000000000000000000000000000000000000000000000000000000 \"
b0000 l"
0m"
0n"
0o"
0p"
b0000001 q"
0r"
b0001 s"
b00000000000000000000000000000000 t"
r10 u"
b0110101000001001111001100110011110111011011001111010111010000101001111000110111011110011011100101010010101001111111101010011101001010001000011100101001001111111100110110000010101101000100011000001111110000011110110011010101101011011111000001100110100011001 w"
b01000010100010100010111110011000011100010011011101000100100100011011010111000000111110111100111111101001101101011101101110100101001110010101011011000010010110110101100111110001000100011111000110010010001111111000001010100100101010110001110001011110110101011101100000000111101010101001100000010010100000110101101100000001001001000011000110000101101111100101010100001100011111011100001101110010101111100101110101110100100000001101111010110001111111101001101111011100000001101010011111000001100110111111000101110100111001001001101101101001110000011110111110111110010001111000011000001111110000011001110111000110001001000000110010100001110011000010110111101001001011000110111101001010011101001000010010101010010111001011000010101001110111000111011011111001100010001101101010011000001111100101000101010010101010000011000111000110011011011011000000000011001001111100100010111111010110010111111111000111110001101110000000001011111100111101010110100111100100010100011100000110110010100110001101010001000101000010100100101001011001110010011110110111000010101000010100101110000110110010000100111000010011010010110001101101111111000101001100111000000011010001001101100101000010100111001101010100011101100110101000001010101110111000000111000010110010010010111010010010011100100010110010000101101000101011111111101000101000011010100000011010011001100100101111000010010010111000101101110000110001110110110001010001101000111101000110010010111010000001100111010110100110010000011000100100111101000000111000110101100001010001000001101010101000000111000000011001101001001100000100010110000111100011011101101100000010000010011101001000011101110100110000110100101100001011110010110101001110010001110000001100101100110100111011011000101010100100101001011011100111001100101001001111011010000010111001101111111100110111010010001111100000101110111001111000101001010110001101101111100001001100100001111000000101001000110011000111000000100000100010010000101111101111111111111010101001000101000001101100111010111011111011111001101000111111011111000110011100010111100011110010 !#
b00000000000000000000000000000111 a#
b00000000000000000000000000000001 b#
b1000000 c#
1d#
#500
b0110101000001001111001100110011110111011011001111010111010000101001111000110111011110011011100101010010101001111111101010011101001010001000011100101001001111111100110110000010101101000100011000001111110000011110110011010101101011011111000001100110100011001 0"
b11001110001000001011010001111110 8"
b00110101100001110010011100101011 9"
b00011111100001011100100110001100 :"
b00111010011011111110011001100111 ;"
b11110011011101111110110101101000 <"
b00001000100100001001101011100101 ="
b0110101000001001111001100110011110111011011001111010111010000101001111000110111011110011011100101010010101001111111101010011101001010001000011100101001001111111100110110000010101101000100011000001111110000011110110011010101101011011111000001100110100011001 P"
0X"
1Y"
b1000000 Z"
1m"
b1000000 q"
1r"
#1000
0m"
#1500
b0001 l"
1m"
1n"
b0010 s"
#2000
0m"
#2500
b0010 l"
1m"
1p"
b0011 s"
#3000
0m"
#3500
b01100001011000100110001110000000000000000000000000000000000000000000000000000000000000000000000000000000000000000000000000000000000000000000000000000000000000000000000000000000000000000000000000000000000000000000000000000000000000000000000000000000000000000000000000000000000000000000000000000000000000000000000000000000000000000000000000000000000000000000000000000000000000000000000000000000000000000000000000000000000000000000000000000000000000000000000000000000000000000000000000000000000000000000000000011000011000010110001001100011100000000000000000001111000000000000000001111101101010000110010000000101011000000000000000000011110001100011111010011101011110110111100000000001100000111111110000000000000100101101110010111111110110111110001011100010110000111000111011001000001000010101110000011010101101110011011001111001101000101110010110111100001110010000100100110010011001100011110001011011100111010010000010011101011001111110110010000111001001101100101101110000001000010011100010100100110100111011011110010111001110111001001111110101100110010111111100111011011010001011101001110011101011111111010011111111110000011111000100001010010111000110001000001010100010110011100110010110011100101010111110000011000010101001010000001001111000110011111000100100011001000001010100100010100111110100011110111111100101001111000010100110010011110101101000111110001001000110101001111001001001110011001100111011101000110000110001000111011000111111001010000100000010101011111100100111011110100010100100001101010111010000011001011100010000111101101011111011001111101000100111001011110011000111011000010111110110111011100111100110011011000011010010101001100110010011011001100111100001001011101011011110110111011100001000010100011000101011110000010100100001110100011100101100101100100000111101111010100110011110111101010111101110011100110111101011111001101011001000111000100111111110001100001001010111100111100010111100100011010100101110100100001111111100111100010101011001101000101100101111111110001110111010101011101000101100110000010010101100011110110111101011 k
b0110101000001001111001100110011110111011011001111010111010000101001111000110111011110011011100101010010101001111111101010011101001010001000011100101001001111111100110110000010101101000100011000001111110000011110110011010101101011011111000001100110100011001 M!
b00101010111000110101001011100101 U!
b11110010000110101001110101011111 V!
b01100001011000100110001110000000000000000000000000000000000000000000000000000000000000000000000000000000000000000000000000000000000000000000000000000000000000000000000000000000000000000000000000000000000000000000000000000000000000000000000000000000000000000000000000000000000000000000000000000000000000000000000000000000000000000000000000000000000000000000000000000000000000000000000000000000000000000000000000000000000000000000000000000000000000000000000000000000000000000000000000000000000000000000000000011000 W!
b1011101001111000000101101011111110001111000000011100111111101010010000010100000101000000110111100101110110101110001000100010001110110000000000110110000110100011100101100001011101111010100111001011010000010000111111110110000111110010000000000001010110101101 g!
b0101000001101110001100000101100011010011100110100010000101100101000001001101001001001101011011001011100001011110001011001110100101011110111101010000111100100100111110110001001000010010000100001001010010001101001001011011011010010110000111110100100010010100 o!
b00010111010011011000001111000110 w!
b10001000111110100010001001110111 x!
b10010100000011010100100010010100 y!
b10010000110110100010110101101101 z!
b10101000010001100111111100100101 {!
b10101000001001111011000100110011 |!
b00000000000000000000000000001000 }!
b1011101001111000000101101011111110001111000000011100111111101010010000010100000101000000110111100101110110101110001000100010001110110000000000110110000110100011100101100001011101111010100111001011010000010000111111110110000111110010000000000001010110101101 ~!
b0011 l"
1m"
0p"
b0100 s"
#4000
0m"
#4500
b01010100110110100101000011101000 <"
b01100001011000100110001110000000000000000000000000000000000000000000000000000000000000000000000000000000000000000000000000000000000000000000000000000000000000000000000000000000000000000000000000000000000000000000000000000000000000000000000000000000000000000000000000000000000000000000000000000000000000000000000000000000000000000000000000000000000000000000000000000000000000000000000000000000000000000000000000000000000000000000000000000000000000000000000000000000000000000000000000000000000000000000000000011000 >"
1X"
0Y"
b0000000 Z"
b01100001011000100110001110000000 ["
b01100001011000100110001110000000000000000000000000000000000000000000000000000000000000000000000000000000000000000000000000000000000000000000000000000000000000000000000000000000000000000000000000000000000000000000000000000000000000000000000000000000000000000000000000000000000000000000000000000000000000000000000000000000000000000000000000000000000000000000000000000000000000000000000000000000000000000000000000000000000000000000000000000000000000000000000000000000000000000000000000000000000000000000000000011000 \"
b0000 l"
1m"
1o"
b0000000 q"
0r"
b0000 s"
b01100001011000100110001110000000 t"
#5000
0m"
#5500
b0101101001101010110110011010110101011101011010101110101111001101011010100000100111100110011001111011101101100111101011101000010101111000110011100111100110001001111110100010101001000110001000100101000100001110010100100111111110011011000001010110100010001100 0"
b10100010100111110110010011010001 8"
b01011010100101001111110100101101 9"
b01010001000011110110101010101110 :"
b01111011011010111110111011000101 ;"
b00111100010111111000011000010111 <"
b00011110000010110101001110010110 ="
b01100001011000100110001110000000000000000000111100000000000000000000000000000000000000000000000000000000000000000000000000000000000000000000000000000000000000000000000000000000000000000000000000000000000000000000000000000000000000000000000000000000000000000000000000000000000000000000000000000000000000000000000000000000000000000000000000000000000000000000000000000000000000000000000000000000000000000000000000000000000000000000000000000000000000000000000000000000000000000000000000000000000000000000000000011000 >"
b00000000000011110000000000000000 O"
b0101110101101010111010111100110101101010000010011110011001100111101110110110011110101110100001010011110001101110111100110111001011111010001010100100011000100010010100010000111001010010011111111001101100000101011010001000110000011111100000111101100110101011 P"
b0000001 Z"
b00000000000000000000000000000000 ["
b0001 l"
1m"
0o"
b0000010 q"
b0010 s"
b00000000000000000000000000000000 t"
#6000
0m"
#6500
b1100100011000011010001111010011101011010011010101101100110101101010111010110101011101011110011010110101000001001111001100110011111111001001010010011100111101011011110001100111001111001100010011111101000101010010001100010001001010001000011100101001001111111 0"
b00110000100101101101000001010100 8"
b01110011111100001110010010010101 9"
b01111001000010100100001001110110 :"
b01011010011010101110101111101101 ;"
b00111101110000011000101101100110 <"
b10001011000000011011110001000001 ="
b01100001011000100110001110000000000000000000111100000000000000000111110110101000011001000000010100000000000000000000000000000000000000000000000000000000000000000000000000000000000000000000000000000000000000000000000000000000000000000000000000000000000000000000000000000000000000000000000000000000000000000000000000000000000000000000000000000000000000000000000000000000000000000000000000000000000000000000000000000000000000000000000000000000000000000000000000000000000000000000000000000000000000000000000000011000 >"
b01111101101010000110010000000101 O"
b0101101001101010110110011010110101011101011010101110101111001101011010100000100111100110011001111011101101100111101011101000010101111000110011100111100110001001111110100010101001000110001000100101000100001110010100100111111110011011000001010110100010001100 P"
b0000010 Z"
b01100001011000100110001110000000000000000000111100000000000000000000000000000000000000000000000000000000000000000000000000000000000000000000000000000000000000000000000000000000000000000000000000000000000000000000000000000000000000000000000000000000000000000000000000000000000000000000000000000000000000000000000000000000000000000000000000000000000000000000000000000000000000000000000000000000000000000000000000000000000000000000000000000000000000000000000000000000000000000000000000000000000000000000000000011000 \"
b0010 l"
1m"
b0000011 q"
b0011 s"
#7000
0m"
#7500
b1101010101010000111101100110011011001000110000110100011110100111010110100110101011011001101011010101110101101010111010111100110100100100111000000000100001010000111110010010100100111001111010110111100011001110011110011000100111111010001010100100011000100010 0"
b11000010000100000000100011010000 8"
b00000110000001110111010000111100 9"
b01111010000010100111111110001001 :"
b01011000011010101100101110101101 ;"
b10111010110101100010000111101001 <"
b00011010011110101101010001111101 ="
b01100001011000100110001110000000000000000000111100000000000000000111110110101000011001000000010101100000000000000000001111000110000000000000000000000000000000000000000000000000000000000000000000000000000000000000000000000000000000000000000000000000000000000000000000000000000000000000000000000000000000000000000000000000000000000000000000000000000000000000000000000000000000000000000000000000000000000000000000000000000000000000000000000000000000000000000000000000000000000000000000000000000000000000000000011000 >"
b01100000000000000000001111000110 O"
b1100100011000011010001111010011101011010011010101101100110101101010111010110101011101011110011010110101000001001111001100110011111111001001010010011100111101011011110001100111001111001100010011111101000101010010001100010001001010001000011100101001001111111 P"
b0000011 Z"
b01100001011000100110001110000000000000000000111100000000000000000111110110101000011001000000010100000000000000000000000000000000000000000000000000000000000000000000000000000000000000000000000000000000000000000000000000000000000000000000000000000000000000000000000000000000000000000000000000000000000000000000000000000000000000000000000000000000000000000000000000000000000000000000000000000000000000000000000000000000000000000000000000000000000000000000000000000000000000000000000000000000000000000000000000011000 \"
b0011 l"
1m"
b0000100 q"
b0100 s"
#8000
0m"
#8500
b0000010001000000100110100110101011010101010100001111011001100110110010001100001101000111101001110101101001101010110110011010110101000011101011011010001001000101001001001110000000001000010100001111100100101001001110011110101101111000110011100111100110001001 0"
b01000101101110110000110001001011 8"
b00111010100100110011010000110010 9"
b01111000001011100111100111001001 :"
b11011000010000101101011110100111 ;"
b11100110010000101011011001111000 <"
b00011101111111011110001111110010 ="
b01100001011000100110001110000000000000000000111100000000000000000111110110101000011001000000010101100000000000000000001111000110001111101001110101111011011110000000000000000000000000000000000000000000000000000000000000000000000000000000000000000000000000000000000000000000000000000000000000000000000000000000000000000000000000000000000000000000000000000000000000000000000000000000000000000000000000000000000000000000000000000000000000000000000000000000000000000000000000000000000000000000000000000000000000011000 >"
b00111110100111010111101101111000 O"
b1101010101010000111101100110011011001000110000110100011110100111010110100110101011011001101011010101110101101010111010111100110100100100111000000000100001010000111110010010100100111001111010110111100011001110011110011000100111111010001010100100011000100010 P"
b0000100 Z"
b01100001011000100110001110000000000000000000111100000000000000000111110110101000011001000000010101100000000000000000001111000110000000000000000000000000000000000000000000000000000000000000000000000000000000000000000000000000000000000000000000000000000000000000000000000000000000000000000000000000000000000000000000000000000000000000000000000000000000000000000000000000000000000000000000000000000000000000000000000000000000000000000000000000000000000000000000000000000000000000000000000000000000000000000000011000 \"
b0100 l"
1m"
b0000101 q"
b0101 s"
#9000
0m"
#9500
b0010101101000010000010011111010100000100010000001001101001101010110101010101000011110110011001101100100011000011010001111010011101110001010000100110000010101101010000111010110110100010010001010010010011100000000010000101000011111001001010010011100111101011 0"
b01010000001010011010110010001111 8"
b10001011011101111110000110011100 9"
b10111000101000000001100111101010 :"
b11000100010000001101011001100110 ;"
b00010110110101111000011100000000 <"
b00010100011010101000001011110101 ="
b01100001011000100110001110000000000000000000111100000000000000000111110110101000011001000000010101100000000000000000001111000110001111101001110101111011011110000000000110000011111111000000000000000000000000000000000000000000000000000000000000000000000000000000000000000000000000000000000000000000000000000000000000000000000000000000000000000000000000000000000000000000000000000000000000000000000000000000000000000000000000000000000000000000000000000000000000000000000000000000000000000000000000000000000000011000 >"
b00000001100000111111110000000000 O"
b0000010001000000100110100110101011010101010100001111011001100110110010001100001101000111101001110101101001101010110110011010110101000011101011011010001001000101001001001110000000001000010100001111100100101001001110011110101101111000110011100111100110001001 P"
b0000101 Z"
b01100001011000100110001110000000000000000000111100000000000000000111110110101000011001000000010101100000000000000000001111000110001111101001110101111011011110000000000000000000000000000000000000000000000000000000000000000000000000000000000000000000000000000000000000000000000000000000000000000000000000000000000000000000000000000000000000000000000000000000000000000000000000000000000000000000000000000000000000000000000000000000000000000000000000000000000000000000000000000000000000000000000000000000000000011000 \"
b0101 l"
1m"
b0000110 q"
b0110 s"
#10000
0m"
#10500
b1110010100000011000000111000000000101011010000100000100111110101000001000100000010011010011010101101010101010000111101100110011010011011001001111010010000000001011100010100001001100000101011010100001110101101101000100100010100100100111000000000100001010000 0"
b00001101010111100000110011000000 8"
b00000001010110110111011101110110 9"
b01000101101000000010100001010101 :"
b00000101010000001001101001100110 ;"
b11010010011001000101110001011010 <"
b00010010100111101010011100100110 ="
b01100001011000100110001110000000000000000000111100000000000000000111110110101000011001000000010101100000000000000000001111000110001111101001110101111011011110000000000110000011111111000000000000010010110111001011111111011011000000000000000000000000000000000000000000000000000000000000000000000000000000000000000000000000000000000000000000000000000000000000000000000000000000000000000000000000000000000000000000000000000000000000000000000000000000000000000000000000000000000000000000000000000000000000000000011000 >"
b00010010110111001011111111000011 O"
b0010101101000010000010011111010100000100010000001001101001101010110101010101000011110110011001101100100011000011010001111010011101110001010000100110000010101101010000111010110110100010010001010010010011100000000010000101000011111001001010010011100111101011 P"
b0000110 Z"
b01100001011000100110001110000000000000000000111100000000000000000111110110101000011001000000010101100000000000000000001111000110001111101001110101111011011110000000000110000011111111000000000000000000000000000000000000000000000000000000000000000000000000000000000000000000000000000000000000000000000000000000000000000000000000000000000000000000000000000000000000000000000000000000000000000000000000000000000000000000000000000000000000000000000000000000000000000000000000000000000000000000000000000000000000011000 \"
b0110 l"
1m"
b0000111 q"
b0111 s"
#11000
0m"
#11500
b1000010110100000011110110101111111100101000000110000001110000000001010110100001000001001111101010000010001000000100110100110101000001100011001010111101001111001100110110010011110100100000000010111000101000010011000001010110101000011101011011010001001000101 0"
b00101001010010011110101101101100 8"
b00010101100011011111101010101001 9"
b01010001100010100010001001000101 :"
b00100101010000100000101111100000 ;"
b00110111000101001000010000010011 <"
b01001110100010111111011101001100 ="
b01100001011000100110001110000000000000000000111100000000000000000111110110101000011001000000010101100000000000000000001111000110001111101001110101111011011110000000000110000011111111000000000000010010110111001011111111011011111000101110001011000011100011100000000000000000000000000000000000000000000000000000000000000000000000000000000000000000000000000000000000000000000000000000000000000000000000000000000000000000000000000000000000000000000000000000000000000000000000000000000000000000000000000000000000011000 >"
b10000001100000000110000000001110 O"
b1110010100000011000000111000000000101011010000100000100111110101000001000100000010011010011010101101010101010000111101100110011010011011001001111010010000000001011100010100001001100000101011010100001110101101101000100100010100100100111000000000100001010000 P"
b0000111 Z"
b01100001011000100110001110000000000000000000111100000000000000000111110110101000011001000000010101100000000000000000001111000110001111101001110101111011011110000000000110000011111111000000000000010010110111001011111111011011000000000000000000000000000000000000000000000000000000000000000000000000000000000000000000000000000000000000000000000000000000000000000000000000000000000000000000000000000000000000000000000000000000000000000000000000000000000000000000000000000000000000000000000000000000000000000000011000 \"
b0111 l"
1m"
b0001000 q"
b1000 s"
#12000
0m"
#12500
b1000111000000100111011001011100110000101101000000111101101011111111001010000001100000011100000000010101101000010000010011111010100110010110010100010110110001100000011000110010101111010011110011001101100100111101001000000000101110001010000100110000010101101 0"
b10111010011110010100110111000010 8"
b10011001101011010010010111000000 9"
b01111001001001110010000010000101 :"
b10100101000000100000101111010101 ;"
b00101110100010011001001100100010 <"
b01011111011110110101100110010111 ="
b01100001011000100110001110000000000000000000111100000000000000000111110110101000011001000000010101100000000000000000001111000110001111101001110101111011011110000000000110000011111111000000000000010010110111001011111111011011111000101110001011000011100011101100100000100001010111000001101000000000000000000000000000000000000000000000000000000000000000000000000000000000000000000000000000000000000000000000000000000000000000000000000000000000000000000000000000000000000000000000000000000000000000000000000000011000 >"
b11001000000100100101110000011010 O"
b1000010110100000011110110101111111100101000000110000001110000000001010110100001000001001111101010000010001000000100110100110101000001100011001010111101001111001100110110010011110100100000000010111000101000010011000001010110101000011101011011010001001000101 P"
b0001000 Z"
b01100001011000100110001110000000000000000000111100000000000000000111110110101000011001000000010101100000000000000000001111000110001111101001110101111011011110000000000110000011111111000000000000010010110111001011111111011011111000101110001011000011100011100000000000000000000000000000000000000000000000000000000000000000000000000000000000000000000000000000000000000000000000000000000000000000000000000000000000000000000000000000000000000000000000000000000000000000000000000000000000000000000000000000000000011000 \"
b1000 l"
1m"
b0001001 q"
b1001 s"
#13000
0m"
#13500
b1000110010000111001101000110101110001110000001001110110010111001100001011010000001111011010111111110010100000011000000111000000000011100110010010010010110010110001100101100101000101101100011000000110001100101011110100111100110011011001001111010010000000001 0"
b00010101111111111010110100110001 8"
b11100100010110111011011111101010 9"
b10001001011001011010100000001001 :"
b10000101000000000110101110011001 ;"
b11110001100001110001101110100001 <"
b10011011000000000001100011001010 ="
b01100001011000100110001110000000000000000000111100000000000000000111110110101000011001000000010101100000000000000000001111000110001111101001110101111011011110000000000110000011111111000000000000010010110111001011111111011011111000101110001011000011100011101100100000100001010111000001101010110111001101100111100110100010000000000000000000000000000000000000000000000000000000000000000000000000000000000000000000000000000000000000000000000000000000000000000000000000000000000000000000000000000000000000000000011000 >"
b00111001100011100001010110011101 O"
b1000111000000100111011001011100110000101101000000111101101011111111001010000001100000011100000000010101101000010000010011111010100110010110010100010110110001100000011000110010101111010011110011001101100100111101001000000000101110001010000100110000010101101 P"
b0001001 Z"
b01100001011000100110001110000000000000000000111100000000000000000111110110101000011001000000010101100000000000000000001111000110001111101001110101111011011110000000000110000011111111000000000000010010110111001011111111011011111000101110001011000011100011101100100000100001010111000001101000000000000000000000000000000000000000000000000000000000000000000000000000000000000000000000000000000000000000000000000000000000000000000000000000000000000000000000000000000000000000000000000000000000000000000000000000011000 \"
b1001 l"
1m"
b0001010 q"
b1010 s"
#14000
0m"
#14500
b0100011110011000101000111111010010001100100001110011010001101011100011100000010011101100101110011000010110100000011110110101111101000011011010110010001111101000000111001100100100100101100101100011001011001010001011011000110000001100011001010111101001111001 0"
b01011100101011000000011100010001 8"
b10001110001000100111011010111100 9"
b00010000111011000111111111101101 :"
b10001100100001000111110001111011 ;"
b01011110011010000010000001101000 <"
b11101001001100001000001110001100 ="
b01100001011000100110001110000000000000000000111100000000000000000111110110101000011001000000010101100000000000000000001111000110001111101001110101111011011110000000000110000011111111000000000000010010110111001011111111011011111000101110001011000011100011101100100000100001010111000001101010110111001101100111100110100010111001011011110000111001000010010000000000000000000000000000000000000000000000000000000000000000000000000000000000000000000000000000000000000000000000000000000000000000000000000000000000011000 >"
b10000101101111000011010101000011 O"
b1000110010000111001101000110101110001110000001001110110010111001100001011010000001111011010111111110010100000011000000111000000000011100110010010010010110010110001100101100101000101101100011000000110001100101011110100111100110011011001001111010010000000001 P"
b0001010 Z"
b01100001011000100110001110000000000000000000111100000000000000000111110110101000011001000000010101100000000000000000001111000110001111101001110101111011011110000000000110000011111111000000000000010010110111001011111111011011111000101110001011000011100011101100100000100001010111000001101010110111001101100111100110100010000000000000000000000000000000000000000000000000000000000000000000000000000000000000000000000000000000000000000000000000000000000000000000000000000000000000000000000000000000000000000000011000 \"
b1010 l"
1m"
b0001011 q"
b1011 s"
#15000
0m"
